{
    "response": {
        "limit_exceeded": "False",
        "has_more_results": "False",
        "message": "Enjoy your data.",
        "results_count": 1,
        "total_count": 1,
        "results": [
            {
                "domain": "google.com",
                "whois_url": "https://whois.domaintools.com/google.com",
                "adsense": {
                    "value": "",
                    "count": 0
                },
                "alexa": 1,
                "active": "True",
                "google_analytics": {
                    "value": "",
                    "count": 0
                },
                "admin_contact": {
                    "name": {
                        "value": "",
                        "count": 0
                    },
                    "org": {
                        "value": "Google LLC",
                        "count": 18049
                    },
                    "street": {
                        "value": "",
                        "count": 0
                    },
                    "city": {
                        "value": "",
                        "count": 0
                    },
                    "state": {
                        "value": "CA",
                        "count": 11975335
                    },
                    "postal": {
                        "value": "",
                        "count": 0
                    },
                    "country": {
                        "value": "us",
                        "count": 199868187
                    },
                    "phone": {
                        "value": "",
                        "count": 0
                    },
                    "fax": {
                        "value": "",
                        "count": 0
                    },
                    "email": [
                        {
                            "value": "select request email form at https://domains.markmonitor.com/whois/google.com",
                            "count": 1
                        }
                    ]
                },
                "billing_contact": {
                    "name": {
                        "value": "",
                        "count": 0
                    },
                    "org": {
                        "value": "",
                        "count": 0
                    },
                    "street": {
                        "value": "",
                        "count": 0
                    },
                    "city": {
                        "value": "",
                        "count": 0
                    },
                    "state": {
                        "value": "",
                        "count": 0
                    },
                    "postal": {
                        "value": "",
                        "count": 0
                    },
                    "country": {
                        "value": "",
                        "count": 0
                    },
                    "phone": {
                        "value": "",
                        "count": 0
                    },
                    "fax": {
                        "value": "",
                        "count": 0
                    },
                    "email": []
                },
                "registrant_contact": {
                    "name": {
                        "value": "",
                        "count": 0
                    },
                    "org": {
                        "value": "Google LLC",
                        "count": 18049
                    },
                    "street": {
                        "value": "",
                        "count": 0
                    },
                    "city": {
                        "value": "",
                        "count": 0
                    },
                    "state": {
                        "value": "CA",
                        "count": 11975335
                    },
                    "postal": {
                        "value": "",
                        "count": 0
                    },
                    "country": {
                        "value": "us",
                        "count": 199868187
                    },
                    "phone": {
                        "value": "",
                        "count": 0
                    },
                    "fax": {
                        "value": "",
                        "count": 0
                    },
                    "email": [
                        {
                            "value": "select request email form at https://domains.markmonitor.com/whois/google.com",
                            "count": 1
                        }
                    ]
                },
                "technical_contact": {
                    "name": {
                        "value": "",
                        "count": 0
                    },
                    "org": {
                        "value": "Google LLC",
                        "count": 18049
                    },
                    "street": {
                        "value": "",
                        "count": 0
                    },
                    "city": {
                        "value": "",
                        "count": 0
                    },
                    "state": {
                        "value": "CA",
                        "count": 11975335
                    },
                    "postal": {
                        "value": "",
                        "count": 0
                    },
                    "country": {
                        "value": "us",
                        "count": 199868187
                    },
                    "phone": {
                        "value": "",
                        "count": 0
                    },
                    "fax": {
                        "value": "",
                        "count": 0
                    },
                    "email": [
                        {
                            "value": "select request email form at https://domains.markmonitor.com/whois/google.com",
                            "count": 1
                        }
                    ]
                },
                "create_date": {
                    "value": "1997-09-15",
                    "count": 1964
                },
                "expiration_date": {
                    "value": "2028-09-13",
                    "count": 3528
                },
                "email_domain": [
                    {
                        "value": "select request email form at https://domains.markmonitor.com/whois/google.com",
                        "count": 1
                    },
                    {
                        "value": "markmonitor.com",
                        "count": 1423379
                    }
                ],
                "soa_email": [
                    {
                        "value": "dns-admin@google.com",
                        "count": 230258
                    }
                ],
                "ssl_email": [],
                "additional_whois_email": [
                    {
                        "value": "abusecomplaints@markmonitor.com",
                        "count": 1144044
                    }
                ],
                "ip": [
                    {
                        "address": {
                            "value": "172.217.14.196",
                            "count": 248
                        },
                        "asn": [
                            {
                                "value": 15169,
                                "count": 51218819
                            }
                        ],
                        "country_code": {
                            "value": "us",
                            "count": 347672869
                        },
                        "isp": {
                            "value": "Google LLC",
                            "count": 49789514
                        }
                    },
                    {
                        "address": {
                            "value": "172.217.14.206",
                            "count": 715
                        },
                        "asn": [
                            {
                                "value": 15169,
                                "count": 51218819
                            }
                        ],
                        "country_code": {
                            "value": "us",
                            "count": 347672869
                        },
                        "isp": {
                            "value": "Google LLC",
                            "count": 49789514
                        }
                    },
                    {
                        "address": {
                            "value": "172.217.14.228",
                            "count": 249
                        },
                        "asn": [
                            {
                                "value": 15169,
                                "count": 51218819
                            }
                        ],
                        "country_code": {
                            "value": "us",
                            "count": 347672869
                        },
                        "isp": {
                            "value": "Google LLC",
                            "count": 49789514
                        }
                    },
                    {
                        "address": {
                            "value": "172.217.14.238",
                            "count": 720
                        },
                        "asn": [
                            {
                                "value": 15169,
                                "count": 51218819
                            }
                        ],
                        "country_code": {
                            "value": "us",
                            "count": 347672869
                        },
                        "isp": {
                            "value": "Google LLC",
                            "count": 49789514
                        }
                    },
                    {
                        "address": {
                            "value": "172.217.3.164",
                            "count": 206
                        },
                        "asn": [
                            {
                                "value": 15169,
                                "count": 51218819
                            }
                        ],
                        "country_code": {
                            "value": "us",
                            "count": 347672869
                        },
                        "isp": {
                            "value": "Google LLC",
                            "count": 49789514
                        }
                    },
                    {
                        "address": {
                            "value": "172.217.3.174",
                            "count": 681
                        },
                        "asn": [
                            {
                                "value": 15169,
                                "count": 51218819
                            }
                        ],
                        "country_code": {
                            "value": "us",
                            "count": 347672869
                        },
                        "isp": {
                            "value": "Google LLC",
                            "count": 49789514
                        }
                    },
                    {
                        "address": {
                            "value": "172.217.3.196",
                            "count": 227
                        },
                        "asn": [
                            {
                                "value": 15169,
                                "count": 51218819
                            }
                        ],
                        "country_code": {
                            "value": "us",
                            "count": 347672869
                        },
                        "isp": {
                            "value": "Google LLC",
                            "count": 49789514
                        }
                    },
                    {
                        "address": {
                            "value": "172.217.3.206",
                            "count": 736
                        },
                        "asn": [
                            {
                                "value": 15169,
                                "count": 51218819
                            }
                        ],
                        "country_code": {
                            "value": "us",
                            "count": 347672869
                        },
                        "isp": {
                            "value": "Google LLC",
                            "count": 49789514
                        }
                    },
                    {
                        "address": {
                            "value": "216.58.193.68",
                            "count": 196
                        },
                        "asn": [
                            {
                                "value": 15169,
                                "count": 51218819
                            }
                        ],
                        "country_code": {
                            "value": "us",
                            "count": 347672869
                        },
                        "isp": {
                            "value": "Google LLC",
                            "count": 49789514
                        }
                    },
                    {
                        "address": {
                            "value": "216.58.193.78",
                            "count": 799
                        },
                        "asn": [
                            {
                                "value": 15169,
                                "count": 51218819
                            }
                        ],
                        "country_code": {
                            "value": "us",
                            "count": 347672869
                        },
                        "isp": {
                            "value": "Google LLC",
                            "count": 49789514
                        }
                    },
                    {
                        "address": {
                            "value": "216.58.217.36",
                            "count": 214
                        },
                        "asn": [
                            {
                                "value": 15169,
                                "count": 51218819
                            }
                        ],
                        "country_code": {
                            "value": "us",
                            "count": 347672869
                        },
                        "isp": {
                            "value": "Google LLC",
                            "count": 49789514
                        }
                    },
                    {
                        "address": {
                            "value": "216.58.217.46",
                            "count": 607
                        },
                        "asn": [
                            {
                                "value": 15169,
                                "count": 51218819
                            }
                        ],
                        "country_code": {
                            "value": "us",
                            "count": 347672869
                        },
                        "isp": {
                            "value": "Google LLC",
                            "count": 49789514
                        }
                    }
                ],
                "mx": [
                    {
                        "host": {
                            "value": "alt1.aspmx.l.google.com",
                            "count": 18225316
                        },
                        "domain": {
                            "value": "google.com",
                            "count": 19670062
                        },
                        "ip": [],
                        "priority": 20
                    },
                    {
                        "host": {
                            "value": "alt2.aspmx.l.google.com",
                            "count": 18101933
                        },
                        "domain": {
                            "value": "google.com",
                            "count": 19670062
                        },
                        "ip": [],
                        "priority": 30
                    },
                    {
                        "host": {
                            "value": "alt3.aspmx.l.google.com",
                            "count": 8889899
                        },
                        "domain": {
                            "value": "google.com",
                            "count": 19670062
                        },
                        "ip": [],
                        "priority": 40
                    },
                    {
                        "host": {
                            "value": "alt4.aspmx.l.google.com",
                            "count": 8807528
                        },
                        "domain": {
                            "value": "google.com",
                            "count": 19670062
                        },
                        "ip": [],
                        "priority": 50
                    },
                    {
                        "host": {
                            "value": "aspmx.l.google.com",
                            "count": 18714413
                        },
                        "domain": {
                            "value": "google.com",
                            "count": 19670062
                        },
                        "ip": [],
                        "priority": 10
                    }
                ],
                "name_server": [
                    {
                        "host": {
                            "value": "ns1.google.com",
                            "count": 15867
                        },
                        "domain": {
                            "value": "google.com",
                            "count": 22607
                        },
                        "ip": [
                            {
                                "value": "216.239.32.10",
                                "count": 13902
                            }
                        ]
                    },
                    {
                        "host": {
                            "value": "ns2.google.com",
                            "count": 15658
                        },
                        "domain": {
                            "value": "google.com",
                            "count": 22607
                        },
                        "ip": [
                            {
                                "value": "216.239.34.10",
                                "count": 13598
                            }
                        ]
                    },
                    {
                        "host": {
                            "value": "ns3.google.com",
                            "count": 6829
                        },
                        "domain": {
                            "value": "google.com",
                            "count": 22607
                        },
                        "ip": [
                            {
                                "value": "216.239.36.10",
                                "count": 6747
                            }
                        ]
                    },
                    {
                        "host": {
                            "value": "ns4.google.com",
                            "count": 6543
                        },
                        "domain": {
                            "value": "google.com",
                            "count": 22607
                        },
                        "ip": [
                            {
                                "value": "216.239.38.10",
                                "count": 6473
                            }
                        ]
                    }
                ],
                "domain_risk": {
                    "risk_score": 0,
                    "components": [
                        {
                            "name": "zerolist",
                            "risk_score": 0
                        }
                    ]
                },
                "redirect": {
                    "value": "",
                    "count": 0
                },
                "redirect_domain": {
                    "value": "",
                    "count": 0
                },
                "registrant_name": {
                    "value": "",
                    "count": 0
                },
                "registrant_org": {
                    "value": "Google LLC",
                    "count": 17672
                },
                "registrar": {
                    "value": "MarkMonitor, Inc.",
                    "count": 1
                },
                "registrar_status": [
                    "clientdeleteprohibited clienttransferprohibited clientupdateprohibited serverdeleteprohibited servertransferprohibited serverupdateprohibited"
                ],
                "spf_info": "v=spf1 include:_spf.google.com ~all",
                "ssl_info": [
                    {
                        "hash": {
                            "value": "953affd91964d909408deeda40480eff5eda528c",
                            "count": 5
                        },
                        "subject": {
                            "value": "CN=*.google.com,O=Google LLC,L=Mountain View,ST=California,C=US",
                            "count": 19
                        },
                        "organization": {
                            "value": "Google LLC",
                            "count": 1855
                        },
                        "email": []
                    },
                    {
                        "hash": {
                            "value": "08e8f2011b9590da8ef8b4585b74acf3ef5d7b10",
                            "count": 1
                        },
                        "subject": {
                            "value": "CN=www.google.com,O=Google LLC,L=Mountain View,ST=California,C=US",
                            "count": 8427
                        },
                        "organization": {
                            "value": "Google LLC",
                            "count": 1855
                        },
                        "email": []
                    }
                ],
                "tld": "com",
                "website_response": 200,
                "data_updated_timestamp": "2020-10-06T07:01:20",
                "tags": []
            }
        ],
        "missing_domains": []
    }
}